{
    "name": "qmi-qsefe-auth0",
    "description": "QSEoK with Auth0 Idp and Persistence",
    "category": "Common",
    "plugin-dependencies": [],
    "notes": "This scenario provisions a local Qlik Sense Enterprise on Kubernetes for Minikube.<br>Uses Auth0 IdP for authentication and Persistence for QSEoK components.<br><br>Review scenario info for QSEfW setup.",
    "version": 3.0,
    "author": "Manuel Romero",
    "email": "manuel.romero@qlik.com",
    "isNew": true,
    "disabled": false,
    "custom": true,
    "resources": [
        {
            "name": "QSEoK Hub",
            "url": "https://qmi-qsefe-auth0:32443"
        }, {
            "name": "QSEoK Console",
            "url": "https://qmi-qsefe-auth0:32443/console"
        }
    ],
    "config": {
    	"allowUpdates": true,
        "servers": [{
            "name": "qmi-qsefe-auth0",
            "ip": "192.168.56.120",
            "box": "bento/ubuntu-16.04",
            "memory": 6144,
            "cpus": 2
        }]
    }
}